{
	"info": {
		"_postman_id": "18bcc4b2-19b7-4688-bd34-925faf990be6",
		"name": "MessageSchedulerRestAPI-SpotChecks",
		"schema": "https://schema.getpostman.com/json/collection/v2.1.0/collection.json"
	},
	"item": [
		{
			"name": "CollectionSetup",
			"item": [],
			"protocolProfileBehavior": {}
		},
		{
			"name": "Smoke",
			"item": [
				{
					"name": "GET Smoke",
					"event": [
						{
							"listen": "test",
							"script": {
								"id": "b7915356-3f7f-4cb1-bffd-6ec8b4876593",
								"exec": [
									"pm.test(\"Status code is 200\", function () {\r",
									"    pm.response.to.have.status(200);\r",
									"});"
								],
								"type": "text/javascript"
							}
						}
					],
					"request": {
						"method": "GET",
						"header": [],
						"url": {
							"raw": "{{scheme}}://{{host}}:{{port}}/{{MessagePath}}",
							"protocol": "{{scheme}}",
							"host": [
								"{{host}}"
							],
							"port": "{{port}}",
							"path": [
								"{{MessagePath}}"
							]
						}
					},
					"response": []
				},
				{
					"name": "POST Smoke",
					"event": [
						{
							"listen": "test",
							"script": {
								"id": "a8d3faef-9c12-4e79-b6a4-5b60f7a0acd5",
								"exec": [
									"pm.test(\"Status code is 202\", function () {\r",
									"    pm.response.to.have.status(202);\r",
									"});"
								],
								"type": "text/javascript"
							}
						}
					],
					"request": {
						"method": "POST",
						"header": [],
						"body": {
							"mode": "raw",
							"raw": "{\r\n    \"msg\": \"In the year 3020 ... \",\r\n    \"dateToProcess\": \"3020-08-26T20:49:35.000Z\"\r\n}",
							"options": {
								"raw": {
									"language": "json"
								}
							}
						},
						"url": {
							"raw": "{{scheme}}://{{host}}:{{port}}/{{MessagePath}}",
							"protocol": "{{scheme}}",
							"host": [
								"{{host}}"
							],
							"port": "{{port}}",
							"path": [
								"{{MessagePath}}"
							]
						}
					},
					"response": []
				},
				{
					"name": "POST Future - 5s",
					"event": [
						{
							"listen": "test",
							"script": {
								"id": "61d44e70-96bf-480f-99b0-767c662bbb41",
								"exec": [
									"pm.test(\"Status code is 202\", function () {\r",
									"    pm.response.to.have.status(202);\r",
									"});"
								],
								"type": "text/javascript"
							}
						},
						{
							"listen": "prerequest",
							"script": {
								"id": "43e2b3d0-a17f-45a8-9ca5-6833024cee99",
								"exec": [
									"var moment = require('moment');\r",
									"\r",
									"var GeneratedMessage = {\r",
									"\t\"msg\": pm.variables.replaceIn('{{$randomPhrase}}'),\r",
									"\t\"dateToProcess\": (moment().add(5, 'seconds')).format()\r",
									"}\r",
									"\r",
									"console.log('GeneratedMessage', GeneratedMessage);\r",
									"pm.variables.set('GeneratedMessage', JSON.stringify(GeneratedMessage));\r",
									""
								],
								"type": "text/javascript"
							}
						}
					],
					"request": {
						"method": "POST",
						"header": [],
						"body": {
							"mode": "raw",
							"raw": "{{GeneratedMessage}}",
							"options": {
								"raw": {
									"language": "json"
								}
							}
						},
						"url": {
							"raw": "{{scheme}}://{{host}}:{{port}}/{{MessagePath}}",
							"protocol": "{{scheme}}",
							"host": [
								"{{host}}"
							],
							"port": "{{port}}",
							"path": [
								"{{MessagePath}}"
							]
						}
					},
					"response": []
				},
				{
					"name": "POST Past - 5s",
					"event": [
						{
							"listen": "test",
							"script": {
								"id": "14048f88-f9d1-40c0-a133-1483363c3ae8",
								"exec": [
									"pm.test(\"Status code is 400\", function () {\r",
									"    pm.response.to.have.status(400);\r",
									"});"
								],
								"type": "text/javascript"
							}
						},
						{
							"listen": "prerequest",
							"script": {
								"id": "c132baa7-d44b-4709-bd32-a0ee86bc706c",
								"exec": [
									"var moment = require('moment');\r",
									"\r",
									"var GeneratedMessage = {\r",
									"\t\"msg\": pm.variables.replaceIn('{{$randomPhrase}}'),\r",
									"\t\"dateToProcess\": (moment().add(-5, 'seconds')).format()\r",
									"}\r",
									"\r",
									"console.log('GeneratedMessage', GeneratedMessage);\r",
									"pm.variables.set('GeneratedMessage', JSON.stringify(GeneratedMessage));\r",
									""
								],
								"type": "text/javascript"
							}
						}
					],
					"request": {
						"method": "POST",
						"header": [],
						"body": {
							"mode": "raw",
							"raw": "{{GeneratedMessage}}",
							"options": {
								"raw": {
									"language": "json"
								}
							}
						},
						"url": {
							"raw": "{{scheme}}://{{host}}:{{port}}/{{MessagePath}}",
							"protocol": "{{scheme}}",
							"host": [
								"{{host}}"
							],
							"port": "{{port}}",
							"path": [
								"{{MessagePath}}"
							]
						}
					},
					"response": []
				}
			],
			"protocolProfileBehavior": {}
		},
		{
			"name": "FieldValidation",
			"item": [],
			"protocolProfileBehavior": {}
		},
		{
			"name": "AlternateScenarios",
			"item": [],
			"protocolProfileBehavior": {}
		},
		{
			"name": "Explore",
			"item": [],
			"protocolProfileBehavior": {}
		},
		{
			"name": "CollectionTeardown",
			"item": [],
			"protocolProfileBehavior": {}
		}
	],
	"protocolProfileBehavior": {}
}